<svg width="32" height="40" viewBox="0 0 32 40" fill="none" xmlns="http://www.w3.org/2000/svg">
<path d="M18 14.0001H29L18 3.00012V14.0001ZM4 0.00012207H20L32 12.0001V36.0001C32 37.061 31.5786 38.0784 30.8284 38.8286C30.0783 39.5787 29.0609 40.0001 28 40.0001H4C1.78 40.0001 0 38.2001 0 36.0001V4.00012C0 1.78012 1.78 0.00012207 4 0.00012207ZM4 36.0001H22H28V20.0001L20 28.0001L16 24.0001L4 36.0001ZM8 14.0001C6.93913 14.0001 5.92172 14.4216 5.17157 15.1717C4.42143 15.9218 4 16.9393 4 18.0001C4 19.061 4.42143 20.0784 5.17157 20.8286C5.92172 21.5787 6.93913 22.0001 8 22.0001C9.06087 22.0001 10.0783 21.5787 10.8284 20.8286C11.5786 20.0784 12 19.061 12 18.0001C12 16.9393 11.5786 15.9218 10.8284 15.1717C10.0783 14.4216 9.06087 14.0001 8 14.0001Z" fill="#C4AD37"/>
</svg>
