<svg width="37" height="37" viewBox="0 0 37 37" fill="none" xmlns="http://www.w3.org/2000/svg">
<path d="M36.3987 4.16671C36.3987 2.19587 34.8041 0.583374 32.8333 0.583374H4.16659C2.19575 0.583374 0.583252 2.19587 0.583252 4.16671V25.6667C0.583252 27.6375 2.19575 29.25 4.16659 29.25H29.2499L36.4166 36.4167L36.3987 4.16671ZM29.2499 22.0834H7.74992V18.5H29.2499V22.0834ZM29.2499 16.7084H7.74992V13.125H29.2499V16.7084ZM29.2499 11.3334H7.74992V7.75004H29.2499V11.3334Z" fill="#C4AD37"/>
</svg>
